[
  {
    "id": 1,
    "text": "От лица всех Автоботов Земли я поздравляю тебя с новогодними праздниками!",
    "type": "autobots",
    "name": "bumblebee"
  },
  {
    "id": 2,
    "text": "Поздравляю с Новым годом! Автоботы желают, чтобы все твои мечты сбылись! А безопаность Земли мы берем на себя!",
    "type": "autobots",
    "name": "grimlock"
  },
  {
    "id": 3,
    "text": "Дружная команда Автоботов поздравляет тебя с новогодними праздниками! Мы желаем тебе еще больше приключений в 2016 году!",
    "type": "autobots",
    "name": "grimlock"
  },
  {
    "id": 4,
    "text": "Человечишка! Поздравляю тебя с новогодними праздниками! Ты поддерживаешь правильную сторону!",
    "type": "decepticons",
    "name": ""
  },
  {
    "id": 5,
    "text": "Ваша планета будет порабощена. Ну а пока поздравляю тебя с Новым годом!",
    "type": "decepticons",
    "name": "underbite"
  },
  {
    "id": 6,
    "text": "Десептиконы поздравляют с Новым годом! Поддерживай нашу фракцию, ведь у нас есть печеньки.",
    "type": "decepticons",
    "name": ""
  },
  {
    "id": 7,
    "text": "Ррррр! С Новым годом тебя! Желаю в 2016 не попадаться мне на глаза!",
    "type": "decepticons",
    "name": "steeljaw"
  },
  {
    "id": 8,
    "text": "Ты хорошо себя вел, поэтому я пощадил тебя! Поздравляю с новогодними праздниками. Наслаждайся ими, пока снова не началась учёба!",
    "type": "decepticons",
    "name": ""
  },
  {
    "id": 9,
    "text": "Рано или поздно ты подчинишься мне, человек! А пока поздравляю тебя с Новым годом!",
    "type": "decepticons",
    "name": ""
  },
  {
    "id": 10,
    "text": "С Новым годом! Пусть твои хитрые планы воплощаются, а коварные желания реализуются!",
    "type": "decepticons",
    "name": "thunderhoof"
  },
  {
    "id": 11,
    "text": "С праздниками, бро! Обещаю, что в следующем году нам будет очень весело!",
    "type": "autobots",
    "name": "sideswipe"
  },
  {
    "id": 12,
    "text": "С новогодними праздниками тебя поздравляю. Всё!",
    "type": "autobots",
    "name": ""
  },
  {
    "id": 13,
    "text": "Пусть Новый год будет крутым, а ты отпразднуешь так же весело, как празднуют его настоящие Трансформеры!",
    "type": "autobots",
    "name": "optimusprime"
  },
  {
    "id": 14,
    "text": "Поздравляю тебя! Да пребудет с тобой мудрость и уверенность в новом году!",
    "type": "autobots",
    "name": ""
  },
  {
    "id": 15,
    "text": "Поздравляю с новогодними праздниками. Пусть следующий год будет таким же захватывающим, как приключения Автоботов!",
    "type": "autobots",
    "name": "strongarm"
  }
]